{
    "@context": [
        "https://w3id.org/codemeta/3.0",
        "https://schema.org"
    ],
    "@type": "SoftwareSourceCode",
    "description": "Enables to analyse RNA-seq data with or without a reference genome. It is an exact local transcriptome assembler, which can identify SNPs, indels and alternative splicing events. It can deal with an arbitrary number of biological conditions, and will quantify each variant in each condition.",
    "identifier": "KisSplice",
    "domain": "Informatique [cs]",
    "licence": "http://www.cecill.info/licences.fr.html",
    "name": "KisSplice",
    "relatedLink": "http://kissplice.prabi.fr/",
    "url": "http://kissplice.prabi.fr/",
    "codeRepository": "https://gitlab.inria.fr/erable/kissplice",
    "keywords": [
        "RNA-seq",
        "De Bruijn graphs"
    ],
    "programmingLanguage": "C++",
    "author": [
        {
            "type": "Person",
            "id": "_:author_0",
            "givenName": "Gustavo Akio",
            "familyName": "Tominaga Sacomoto",
            "affiliation": {
                "@type": "Organization",
                "name": "Inria"
            }
        },
        {
            "type": "Role",
            "author": "_:author_0",
            "roleName": "documentation"
        },
        {
            "type": "Role",
            "author": "_:author_0",
            "roleName": "coding"
        },
        {
            "type": "Person",
            "id": "_:author_1",
            "givenName": "Vincent",
            "familyName": "Lacroix",
            "email": "vincent.lacroix@inria.fr",
            "affiliation": {
                "@type": "Organization",
                "name": "Université Lyon 1 UMR5558 (UCBL)"
            }
        },
        {
            "type": "Role",
            "author": "_:author_1",
            "roleName": "documentation"
        },
        {
            "type": "Person",
            "id": "_:author_2",
            "givenName": "Pierre",
            "familyName": "Peterlongo",
            "email": "pierre.peterlongo@inria.fr",
            "affiliation": {
                "@type": "Organization",
                "name": "Inria"
            }
        },
        {
            "type": "Role",
            "author": "_:author_2",
            "roleName": "documentation"
        },
        {
            "type": "Role",
            "author": "_:author_2",
            "roleName": "coding"
        },
        {
            "type": "Person",
            "id": "_:author_3",
            "givenName": "Rayan",
            "familyName": "Chikhi",
            "email": "rayan.chikhi@inria.fr",
            "affiliation": {
                "@type": "Organization",
                "name": "ENS Cachan"
            }
        },
        {
            "type": "Role",
            "author": "_:author_3",
            "roleName": "documentation"
        },
        {
            "type": "Role",
            "author": "_:author_3",
            "roleName": "coding"
        },
        {
            "type": "Person",
            "id": "_:author_4",
            "givenName": "Alice",
            "familyName": "Julien-Laferriere",
            "email": "alice.julien-laferriere@inria.fr",
            "affiliation": {
                "@type": "Organization",
                "name": "Inria"
            }
        },
        {
            "type": "Role",
            "author": "_:author_4",
            "roleName": "coding",
            "startDate": "2012-12-01",
            "endDate": "2014-12-01"
        },
        {
            "type": "Person",
            "id": "_:author_5",
            "givenName": "David",
            "familyName": "Parsons",
            "email": "david.parsons@inria.fr",
            "affiliation": {
                "@type": "Organization",
                "name": "Inria"
            }
        },
        {
            "type": "Role",
            "author": "_:author_5",
            "roleName": "coding",
            "startDate": "2012-10-01",
            "endDate": "2013-09-30"
        },
        {
            "type": "Person",
            "id": "_:author_6",
            "givenName": "Janice",
            "familyName": "Kielbassa",
            "email": "janice.kielbassa@inria.fr",
            "affiliation": {
                "@type": "Organization",
                "name": "Inria"
            }
        },
        {
            "type": "Role",
            "author": "_:author_6",
            "roleName": "documentation",
            "startDate": "2012-10-01",
            "endDate": "2013-09-30"
        },
        {
            "type": "Person",
            "id": "_:author_7",
            "givenName": "Marie-France",
            "familyName": "Sagot",
            "email": "marie-france.sagot@inria.fr",
            "affiliation": {
                "@type": "Organization",
                "name": "Inria"
            }
        },
        {
            "type": "Role",
            "author": "_:author_7",
            "roleName": "documentation",
            "startDate": "2012-10-01",
            "endDate": "2013-09-30"
        },
        {
            "type": "Person",
            "id": "_:author_8",
            "givenName": "Pavlos",
            "familyName": "Antoniou",
            "affiliation": {
                "@type": "Organization",
                "name": "Inria"
            }
        },
        {
            "type": "Role",
            "author": "_:author_8",
            "roleName": "coding",
            "startDate": "2012-10-01",
            "endDate": "2013-09-30"
        },
        {
            "type": "Person",
            "id": "_:author_9",
            "givenName": "Uricaru",
            "familyName": "Raluca",
            "affiliation": {
                "@type": "Organization",
                "name": "Inria"
            }
        },
        {
            "type": "Role",
            "author": "_:author_9",
            "roleName": "coding",
            "startDate": "2012-10-01",
            "endDate": "2013-09-30"
        },
        {
            "type": "Person",
            "id": "_:author_10",
            "givenName": "Vincent",
            "familyName": "Miele",
            "affiliation": {
                "@type": "Organization",
                "name": "CNRS UMR5558 (UCBL)"
            }
        },
        {
            "type": "Role",
            "author": "_:author_10",
            "roleName": "coding",
            "startDate": "2012-10-01",
            "endDate": "2013-09-30"
        }
    ],
    "referencePublication": "https://inria.hal.science/hal-00784407v1"
}